<?xml version="1.0" encoding="UTF-8" standalone="no"?>
<!-- Created with Inkscape (http://www.inkscape.org/) -->

<svg
   xmlns:dc="http://purl.org/dc/elements/1.1/"
   xmlns:cc="http://creativecommons.org/ns#"
   xmlns:rdf="http://www.w3.org/1999/02/22-rdf-syntax-ns#"
   xmlns:svg="http://www.w3.org/2000/svg"
   xmlns="http://www.w3.org/2000/svg"
   xmlns:sodipodi="http://sodipodi.sourceforge.net/DTD/sodipodi-0.dtd"
   xmlns:inkscape="http://www.inkscape.org/namespaces/inkscape"
   width="400"
   height="30"
   viewBox="0 0 105.83333 7.9374995"
   version="1.1"
   id="svg33015"
   inkscape:version="0.92.1 r15371"
   sodipodi:docname="contoh_schema2.svg">
  <defs
     id="defs33009" />
  <sodipodi:namedview
     id="base"
     pagecolor="#ffffff"
     bordercolor="#666666"
     borderopacity="1.0"
     inkscape:pageopacity="0.0"
     inkscape:pageshadow="2"
     inkscape:zoom="1.979899"
     inkscape:cx="95.39842"
     inkscape:cy="74.751885"
     inkscape:document-units="px"
     inkscape:current-layer="layer1"
     showgrid="false"
     units="px"
     inkscape:window-width="1920"
     inkscape:window-height="1027"
     inkscape:window-x="1358"
     inkscape:window-y="-8"
     inkscape:window-maximized="1" />
  <metadata
     id="metadata33012">
    <rdf:RDF>
      <cc:Work
         rdf:about="">
        <dc:format>image/svg+xml</dc:format>
        <dc:type
           rdf:resource="http://purl.org/dc/dcmitype/StillImage" />
        <dc:title></dc:title>
      </cc:Work>
    </rdf:RDF>
  </metadata>
  <g
     inkscape:label="Layer 1"
     inkscape:groupmode="layer"
     id="layer1"
     transform="translate(0,-289.0625)">
    <rect
       ry="0"
       y="289.0625"
       x="-1.3108088e-006"
       height="7.9374995"
       width="21.166662"
       id="rect11181"
       style="opacity:1;fill:#ff0000;fill-opacity:1;fill-rule:nonzero;stroke:none;stroke-width:0.3661525;stroke-linecap:butt;stroke-linejoin:bevel;stroke-miterlimit:4;stroke-dasharray:2.92922001, 0.36615249999999999;stroke-dashoffset:0;stroke-opacity:1" />
    <rect
       style="opacity:1;fill:#daddcd;fill-opacity:0;fill-rule:nonzero;stroke:none;stroke-width:0.3661525;stroke-linecap:butt;stroke-linejoin:bevel;stroke-miterlimit:4;stroke-dasharray:2.92922001, 0.3661525;stroke-dashoffset:0;stroke-opacity:1"
       id="rect11187"
       width="21.166662"
       height="7.9374995"
       x="21.16666"
       y="289.0625"
       ry="0" />
    <rect
       ry="0"
       y="289.0625"
       x="42.333321"
       height="7.9374995"
       width="21.166662"
       id="rect11189"
       style="opacity:1;fill:#ffd700;fill-opacity:1;fill-rule:nonzero;stroke:none;stroke-width:0.3661525;stroke-linecap:butt;stroke-linejoin:bevel;stroke-miterlimit:4;stroke-dasharray:2.92922001, 0.36615249999999999;stroke-dashoffset:0;stroke-opacity:1" />
    <rect
       style="opacity:1;fill:#fc987a;fill-opacity:1;fill-rule:nonzero;stroke:none;stroke-width:0.3661525;stroke-linecap:butt;stroke-linejoin:bevel;stroke-miterlimit:4;stroke-dasharray:2.92922001, 0.3661525;stroke-dashoffset:0;stroke-opacity:1"
       id="rect11191"
       width="21.166662"
       height="7.9374995"
       x="63.499989"
       y="289.0625"
       ry="0" />
    <rect
       ry="0"
       y="289.0625"
       x="84.666641"
       height="7.9374995"
       width="21.166662"
       id="rect11193"
       style="opacity:1;fill:#70685c;fill-opacity:1;fill-rule:nonzero;stroke:none;stroke-width:0.3661525;stroke-linecap:butt;stroke-linejoin:bevel;stroke-miterlimit:4;stroke-dasharray:2.92922001, 0.3661525;stroke-dashoffset:0;stroke-opacity:1" />
    <rect
       style="opacity:1;fill:#daddcd;fill-opacity:1;fill-rule:nonzero;stroke:none;stroke-width:0.3661525;stroke-linecap:butt;stroke-linejoin:bevel;stroke-miterlimit:4;stroke-dasharray:2.92922001, 0.3661525;stroke-dashoffset:0;stroke-opacity:1"
       id="rect11283"
       width="21.166662"
       height="7.9374995"
       x="21.16666"
       y="289.0625"
       ry="0" />
    <text
       xml:space="preserve"
       style="font-style:normal;font-variant:normal;font-weight:normal;font-stretch:normal;font-size:3.70416641px;line-height:125%;font-family:Arial;-inkscape-font-specification:Arial;letter-spacing:0px;word-spacing:0px;fill:#000000;fill-opacity:1;stroke:none;stroke-width:0.26458332px;stroke-linecap:butt;stroke-linejoin:miter;stroke-opacity:1;"
       x="4.139925"
       y="294.3353"
       id="text33717"><tspan
         sodipodi:role="line"
         id="tspan33715"
         x="4.139925"
         y="294.3353"
         style="stroke-width:0.26458332px;-inkscape-font-specification:Arial;font-family:Arial;font-weight:normal;font-style:normal;font-stretch:normal;font-variant:normal;">Header</tspan></text>
    <text
       id="text33721"
       y="293.96722"
       x="27.011263"
       style="font-style:normal;font-variant:normal;font-weight:bold;font-stretch:normal;font-size:3.70416641px;line-height:125%;font-family:Arial;-inkscape-font-specification:'Arial Bold';letter-spacing:0px;word-spacing:0px;fill:#000000;fill-opacity:1;stroke:none;stroke-width:0.26458332px;stroke-linecap:butt;stroke-linejoin:miter;stroke-opacity:1"
       xml:space="preserve"><tspan
         style="stroke-width:0.26458332px;-inkscape-font-specification:Arial;font-family:Arial;font-weight:normal;font-style:normal;font-stretch:normal;font-variant:normal"
         y="293.96722"
         x="27.011263"
         id="tspan33719"
         sodipodi:role="line">Body</tspan></text>
    <text
       xml:space="preserve"
       style="font-style:normal;font-variant:normal;font-weight:bold;font-stretch:normal;font-size:3.70416641px;line-height:125%;font-family:Arial;-inkscape-font-specification:'Arial Bold';letter-spacing:0px;word-spacing:0px;fill:#000000;fill-opacity:1;stroke:none;stroke-width:0.26458332px;stroke-linecap:butt;stroke-linejoin:miter;stroke-opacity:1"
       x="45.850159"
       y="294.35699"
       id="text33725"><tspan
         sodipodi:role="line"
         id="tspan33723"
         x="45.850159"
         y="294.35699"
         style="stroke-width:0.26458332px;-inkscape-font-specification:Arial;font-family:Arial;font-weight:normal;font-style:normal;font-stretch:normal;font-variant:normal">Content</tspan></text>
    <text
       id="text33729"
       y="294.35699"
       x="70.15126"
       style="font-style:normal;font-variant:normal;font-weight:bold;font-stretch:normal;font-size:3.70416641px;line-height:125%;font-family:Arial;-inkscape-font-specification:'Arial Bold';letter-spacing:0px;word-spacing:0px;fill:#000000;fill-opacity:1;stroke:none;stroke-width:0.26458332px;stroke-linecap:butt;stroke-linejoin:miter;stroke-opacity:1"
       xml:space="preserve"><tspan
         style="stroke-width:0.26458332px;-inkscape-font-specification:Arial;font-family:Arial;font-weight:normal;font-style:normal;font-stretch:normal;font-variant:normal"
         y="294.35699"
         x="70.15126"
         id="tspan33727"
         sodipodi:role="line">Link</tspan></text>
    <text
       xml:space="preserve"
       style="font-style:normal;font-variant:normal;font-weight:bold;font-stretch:normal;font-size:3.70416641px;line-height:125%;font-family:Arial;-inkscape-font-specification:'Arial Bold';letter-spacing:0px;word-spacing:0px;fill:#ffffff;fill-opacity:1;stroke:none;stroke-width:0.26458332px;stroke-linecap:butt;stroke-linejoin:miter;stroke-opacity:1;"
       x="89.322945"
       y="294.3353"
       id="text33733"><tspan
         sodipodi:role="line"
         id="tspan33731"
         x="89.322945"
         y="294.3353"
         style="stroke-width:0.26458332px;-inkscape-font-specification:Arial;font-family:Arial;font-weight:normal;font-style:normal;font-stretch:normal;font-variant:normal;fill:#ffffff;">Footer</tspan></text>
  </g>
</svg>
